5 Data wrangling | Fundamental plots for electrophysiological data
…
At the end of this process, here is how all_replicate_data_reorganized[[1]]
should look:

## How long is this list?
length(all_replicate_data_reorganized[[1]])

## [1] 80

## This object contains 48 individual tibbles. Here's an example of one
## pulled at random
all_replicate_data_reorganized[[1]][sample(1:48, size = 1)]

## $`90 Deg, 1024 Deg/s`
## # A tibble: 4,008 × 16
##    Speed Spatial_F…¹ Tempo…² Direc…³   bin Trial Time_…⁴ Time_…⁵ Time_…⁶ Spike…⁷
##    <dbl>       <dbl>   <dbl>   <dbl> <int> <chr>   <dbl>   <dbl>   <dbl>   <dbl>
##  1  1024      0.0156      16      90     1 blank    33.3    33.3    33.3      0 
##  2  1024      0.0156      16      90     2 blank    33.3    33.3    33.3      0 
##  3  1024      0.0156      16      90     3 blank    33.3    33.3    33.4      0 
##  4  1024      0.0156      16      90     4 blank    33.4    33.4    33.4      0 
##  5  1024      0.0156      16      90     5 blank    33.4    33.4    33.4      0 
##  6  1024      0.0156      16      90     6 blank    33.4    33.4    33.4      0 
##  7  1024      0.0156      16      90     7 blank    33.4    33.4    33.4      0 
##  8  1024      0.0156      16      90     8 blank    33.4    33.4    33.4    222.
##  9  1024      0.0156      16      90     9 blank    33.4    33.4    33.4    111.
## 10  1024      0.0156      16      90    10 blank    33.4    33.4    33.4      0 
## # … with 3,998 more rows, 6 more variables: Photod_mean <dbl>, Spikes_0 <dbl>,
## #   Time_stand <dbl>, Blank_end <dbl>, Static_end <dbl>, Replicate <int>, and
## #   abbreviated variable names ¹​Spatial_Frequency, ²​Temporal_Frequency,
## #   ³​Direction, ⁴​Time_bin_mid, ⁵​Time_bin_begin, ⁶​Time_bin_end, ⁷​Spike_rate

## To consolidate this, you can use bind_rows()
all_replicate_data_reorganized[[1]] %>% bind_rows

## # A tibble: 284,067 × 16
##    Speed Spatial_F…¹ Tempo…² Direc…³   bin Trial Time_…⁴ Time_…⁵ Time_…⁶ Spike…⁷
##    <dbl>       <dbl>   <dbl>   <dbl> <int> <chr>   <dbl>   <dbl>   <dbl>   <dbl>
##  1  1024      0.0156      16       0     1 blank    181.    181.    181.      0 
##  2  1024      0.0156      16       0     2 blank    181.    181.    181.      0 
##  3  1024      0.0156      16       0     3 blank    181.    181.    181.      0 
##  4  1024      0.0156      16       0     4 blank    181.    181.    181.      0 
##  5  1024      0.0156      16       0     5 blank    181.    181.    181.      0 
##  6  1024      0.0156      16       0     6 blank    181.    181.    181.      0 
##  7  1024      0.0156      16       0     7 blank    181.    181.    181.      0 
##  8  1024      0.0156      16       0     8 blank    181.    181.    181.    222.
##  9  1024      0.0156      16       0     9 blank    181.    181.    181.    222.
## 10  1024      0.0156      16       0    10 blank    181.    181.    181.    111.
## # … with 284,057 more rows, 6 more variables: Photod_mean <dbl>,
## #   Spikes_0 <dbl>, Time_stand <dbl>, Blank_end <dbl>, Static_end <dbl>,
## #   Replicate <int>, and abbreviated variable names ¹​Spatial_Frequency,
## #   ²​Temporal_Frequency, ³​Direction, ⁴​Time_bin_mid, ⁵​Time_bin_begin,
## #   ⁶​Time_bin_end, ⁷​Spike_rate
…
